…
  # Criar data frame
  raw_df <- read_tsv(cleaned_raw_data)
  df <- raw_df[,-1]  
  
  return(df) 
}

df_1 <- cria_df_eyetracking(arquivo)
print(df_1)
```

    ## # A tibble: 27,084 x 14
    ##    TotalTime DeltaTime X_Gaze Y_Gaze Region PupilWidth PupilAspect Quality
    ##        <dbl>     <dbl>  <dbl>  <dbl>  <dbl>      <dbl>       <dbl>   <dbl>
    ##  1    0           0     0.562  0.496     -1     0.0869       0.986       1
    ##  2    0.0239     23.9   0.544  0.572     -1     0.0902       0.921       1
    ##  3    0.0334      9.48  0.567  0.496      0     0.0883       0.967       1
    ##  4    0.0568     23.4   0.544  0.572      0     0.0902       0.921       1
    ##  5    0.0667      9.95  0.56   0.526      0     0.0896       0.944       1
    ##  6    0.0899     23.2   0.533  0.572      0     0.0908       0.918       1
    ##  7    0.100      10.2   0.549  0.528      0     0.0894       0.958       1
    ##  8    0.124      23.6   0.532  0.548      0     0.0906       0.940       1
    ##  9    0.133       9.74  0.556  0.498      0     0.0879       0.986       1
    ## 10    0.157      23.4   0.544  0.572      0     0.0902       0.921       1
    ## # … with 27,074 more rows, and 6 more variables: Fixation <dbl>, pXraw <dbl>,
    ## #   pYraw <dbl>, gXraw <dbl>, gYraw <dbl>, Count <dbl>
…
``` r
# Remover TotalTime e DeltaTime zerados
remove_zerados <- function(x) {
  df_zerado = filter(x, TotalTime != 0 | Count == 0)
  return(df_zerado)
}

df_1_cleaned <- remove_zerados(df_1)
print(df_1)
```

    ## # A tibble: 27,084 x 14
    ##    TotalTime DeltaTime X_Gaze Y_Gaze Region PupilWidth PupilAspect Quality
    ##        <dbl>     <dbl>  <dbl>  <dbl>  <dbl>      <dbl>       <dbl>   <dbl>
    ##  1    0           0     0.562  0.496     -1     0.0869       0.986       1
    ##  2    0.0239     23.9   0.544  0.572     -1     0.0902       0.921       1
    ##  3    0.0334      9.48  0.567  0.496      0     0.0883       0.967       1
    ##  4    0.0568     23.4   0.544  0.572      0     0.0902       0.921       1
    ##  5    0.0667      9.95  0.56   0.526      0     0.0896       0.944       1
    ##  6    0.0899     23.2   0.533  0.572      0     0.0908       0.918       1
    ##  7    0.100      10.2   0.549  0.528      0     0.0894       0.958       1
    ##  8    0.124      23.6   0.532  0.548      0     0.0906       0.940       1
    ##  9    0.133       9.74  0.556  0.498      0     0.0879       0.986       1
    ## 10    0.157      23.4   0.544  0.572      0     0.0902       0.921       1
    ## # … with 27,074 more rows, and 6 more variables: Fixation <dbl>, pXraw <dbl>,
    ## #   pYraw <dbl>, gXraw <dbl>, gYraw <dbl>, Count <dbl>
